^C:\USERS\MAGSHIMIM\DESKTOP\SCHOOL\MAGSHIMIM\C++\LESSON12\LESSON12\EX2\MAIN.CPP
/c /ZI /nologo /W3 /WX- /diagnostics:classic /sdl /Od /D _MBCS /Gm /EHsc /RTC1 /MDd /GS /fp:precise /Zc:wchar_t /Zc:forScope /Zc:inline /Fo"X64\DEBUG\\" /Fd"X64\DEBUG\VC141.PDB" /Gd /TP C:\USERS\MAGSHIMIM\DESKTOP\SCHOOL\MAGSHIMIM\C++\LESSON12\LESSON12\EX2\MAIN.CPP
^C:\USERS\MAGSHIMIM\DESKTOP\SCHOOL\MAGSHIMIM\C++\LESSON12\LESSON12\EX2\MESSAGESENDER.CPP
/c /ZI /nologo /W3 /WX- /diagnostics:classic /sdl /Od /D _MBCS /Gm /EHsc /RTC1 /MDd /GS /fp:precise /Zc:wchar_t /Zc:forScope /Zc:inline /Fo"X64\DEBUG\\" /Fd"X64\DEBUG\VC141.PDB" /Gd /TP C:\USERS\MAGSHIMIM\DESKTOP\SCHOOL\MAGSHIMIM\C++\LESSON12\LESSON12\EX2\MESSAGESENDER.CPP
^C:\USERS\MAGSHIMIM\DESKTOP\SCHOOL\MAGSHIMIM\C++\LESSON12\LESSON12\EX2\MESSAGESSENDER.CPP
/c /ZI /nologo /W3 /WX- /diagnostics:classic /sdl /Od /D _MBCS /Gm /EHsc /RTC1 /MDd /GS /fp:precise /Zc:wchar_t /Zc:forScope /Zc:inline /Fo"X64\DEBUG\\" /Fd"X64\DEBUG\VC141.PDB" /Gd /TP C:\USERS\MAGSHIMIM\DESKTOP\SCHOOL\MAGSHIMIM\C++\LESSON12\LESSON12\EX2\MESSAGESSENDER.CPP
